{
  "compilerOptions": {
    "baseUrl": ".",
    "paths": {
      //Assuming your components/utilities live in ./src
      //Update this path as necessary
      "/src/*": ["./src/*"]
    }
  }
  //Add any build/compiled folders here to stop vscode searching those
  // "exclude": ["node_modules", "build"]
}
